<?xml version="1.0" encoding="UTF-8" standalone="no"?>
<!-- Created with Inkscape (http://www.inkscape.org/) -->

<svg
   xmlns:dc="http://purl.org/dc/elements/1.1/"
   xmlns:cc="http://creativecommons.org/ns#"
   xmlns:rdf="http://www.w3.org/1999/02/22-rdf-syntax-ns#"
   xmlns:svg="http://www.w3.org/2000/svg"
   xmlns="http://www.w3.org/2000/svg"
   xmlns:sodipodi="http://sodipodi.sourceforge.net/DTD/sodipodi-0.dtd"
   xmlns:inkscape="http://www.inkscape.org/namespaces/inkscape"
   width="139.10265mm"
   height="51.488651mm"
   viewBox="0 0 139.10264 51.488651"
   version="1.1"
   id="svg8"
   inkscape:version="0.92.3 (2405546, 2018-03-11)"
   sodipodi:docname="sim_arch.svg">
  <defs
     id="defs2">
    <marker
       style="overflow:visible"
       id="Arrow1Lend"
       refX="0"
       refY="0"
       orient="auto"
       inkscape:stockid="Arrow1Lend">
      <path
         inkscape:connector-curvature="0"
         transform="matrix(-0.8,0,0,-0.8,-10,0)"
         style="fill-rule:evenodd;stroke:#000000;stroke-width:1.00000003pt"
         d="M 0,0 5,-5 -12.5,0 5,5 Z"
         id="path3811" />
    </marker>
    <marker
       style="overflow:visible"
       id="Arrow1Lstart"
       refX="0"
       refY="0"
       orient="auto"
       inkscape:stockid="Arrow1Lstart">
      <path
         inkscape:connector-curvature="0"
         transform="matrix(0.8,0,0,0.8,10,0)"
         style="fill-rule:evenodd;stroke:#000000;stroke-width:1.00000003pt"
         d="M 0,0 5,-5 -12.5,0 5,5 Z"
         id="path3808" />
    </marker>
    <marker
       style="overflow:visible"
       id="Arrow1Lstart-02"
       refX="0"
       refY="0"
       orient="auto"
       inkscape:stockid="Arrow1Lstart">
      <path
         inkscape:connector-curvature="0"
         transform="matrix(0.8,0,0,0.8,10,0)"
         style="fill-rule:evenodd;stroke:#000000;stroke-width:1.00000003pt"
         d="M 0,0 5,-5 -12.5,0 5,5 Z"
         id="path3808-37" />
    </marker>
    <marker
       style="overflow:visible"
       id="Arrow1Lend-59"
       refX="0"
       refY="0"
       orient="auto"
       inkscape:stockid="Arrow1Lend">
      <path
         inkscape:connector-curvature="0"
         transform="matrix(-0.8,0,0,-0.8,-10,0)"
         style="fill-rule:evenodd;stroke:#000000;stroke-width:1.00000003pt"
         d="M 0,0 5,-5 -12.5,0 5,5 Z"
         id="path3811-2" />
    </marker>
    <marker
       style="overflow:visible"
       id="Arrow1Lstart-02-8"
       refX="0"
       refY="0"
       orient="auto"
       inkscape:stockid="Arrow1Lstart">
      <path
         inkscape:connector-curvature="0"
         transform="matrix(0.8,0,0,0.8,10,0)"
         style="fill-rule:evenodd;stroke:#000000;stroke-width:1.00000003pt"
         d="M 0,0 5,-5 -12.5,0 5,5 Z"
         id="path3808-37-9" />
    </marker>
    <marker
       style="overflow:visible"
       id="Arrow1Lend-59-7"
       refX="0"
       refY="0"
       orient="auto"
       inkscape:stockid="Arrow1Lend">
      <path
         inkscape:connector-curvature="0"
         transform="matrix(-0.8,0,0,-0.8,-10,0)"
         style="fill-rule:evenodd;stroke:#000000;stroke-width:1.00000003pt"
         d="M 0,0 5,-5 -12.5,0 5,5 Z"
         id="path3811-2-3" />
    </marker>
    <marker
       style="overflow:visible"
       id="Arrow1Lstart-02-8-1"
       refX="0"
       refY="0"
       orient="auto"
       inkscape:stockid="Arrow1Lstart">
      <path
         inkscape:connector-curvature="0"
         transform="matrix(0.8,0,0,0.8,10,0)"
         style="fill-rule:evenodd;stroke:#000000;stroke-width:1.00000003pt"
         d="M 0,0 5,-5 -12.5,0 5,5 Z"
         id="path3808-37-9-2" />
    </marker>
    <marker
       style="overflow:visible"
       id="Arrow1Lend-59-7-9"
       refX="0"
       refY="0"
       orient="auto"
       inkscape:stockid="Arrow1Lend">
      <path
         inkscape:connector-curvature="0"
         transform="matrix(-0.8,0,0,-0.8,-10,0)"
         style="fill-rule:evenodd;stroke:#000000;stroke-width:1.00000003pt"
         d="M 0,0 5,-5 -12.5,0 5,5 Z"
         id="path3811-2-3-3" />
    </marker>
  </defs>
  <sodipodi:namedview
     id="base"
     pagecolor="#ffffff"
     bordercolor="#666666"
     borderopacity="1.0"
     inkscape:pageopacity="0.0"
     inkscape:pageshadow="2"
     inkscape:zoom="1.4"
     inkscape:cx="246.17279"
     inkscape:cy="65.709569"
     inkscape:document-units="mm"
     inkscape:current-layer="g3995-8"
     showgrid="false"
     fit-margin-top="1"
     fit-margin-left="1"
     fit-margin-right="1"
     fit-margin-bottom="1"
     inkscape:window-width="1920"
     inkscape:window-height="1016"
     inkscape:window-x="0"
     inkscape:window-y="27"
     inkscape:window-maximized="1" />
  <metadata
     id="metadata5">
    <rdf:RDF>
      <cc:Work
         rdf:about="">
        <dc:format>image/svg+xml</dc:format>
        <dc:type
           rdf:resource="http://purl.org/dc/dcmitype/StillImage" />
        <dc:title />
      </cc:Work>
    </rdf:RDF>
  </metadata>
  <g
     inkscape:label="Calque 1"
     inkscape:groupmode="layer"
     id="layer1"
     transform="translate(-31.023979,-139.52728)">
    <rect
       style="fill:#fabcde;fill-opacity:1;stroke:#000000;stroke-width:0.07185581;stroke-opacity:1"
       id="rect2996-6-3"
       width="101.13135"
       height="29.673002"
       x="67.959343"
       y="160.30701"
       ry="0" />
    <g
       id="g3995-8"
       transform="matrix(0.26458333,0,0,0.26458333,76.055508,78.070661)">
      <g
         id="g922"
         transform="translate(0,-4)">
        <rect
           style="fill:#f2f2f2;fill-opacity:1;stroke:#000000;stroke-width:1;stroke-linecap:round;stroke-linejoin:round;stroke-miterlimit:4;stroke-dasharray:2, 1;stroke-dashoffset:0;stroke-opacity:1"
           id="rect3943-7-3"
           width="146.56493"
           height="53.580135"
           x="191.13673"
           y="339.32693" />
        <text
           xml:space="preserve"
           style="font-style:normal;font-variant:normal;font-weight:normal;font-stretch:normal;line-height:0%;font-family:Arial;-inkscape-font-specification:Arial;text-align:center;letter-spacing:0px;word-spacing:0px;text-anchor:middle;fill:#000000;fill-opacity:1;stroke:none"
           x="264.42407"
           y="358.02386"
           id="text3945-9-01"><tspan
             id="tspan941"
             style="font-size:10px;line-height:1.25"
             sodipodi:role="line"
             x="264.42407"
             y="358.02386">Road Model,</tspan><tspan
             id="tspan945"
             style="font-size:10px;line-height:1.25"
             sodipodi:role="line"
             x="264.42407"
             y="370.52386">Smart Object Model and</tspan><tspan
             id="tspan915"
             style="font-size:10px;line-height:1.25"
             sodipodi:role="line"
             x="264.42407"
             y="383.02386">Agent Bodies</tspan></text>
      </g>
    </g>
    <text
       xml:space="preserve"
       style="font-style:normal;font-variant:normal;font-weight:normal;font-stretch:normal;font-size:3.17499995px;line-height:0%;font-family:Arial;-inkscape-font-specification:Arial;text-align:center;letter-spacing:0px;word-spacing:0px;text-anchor:middle;fill:#000000;fill-opacity:1;stroke:none;stroke-width:0.26458332"
       x="82.813072"
       y="143.5948"
       id="text3766-9-5"><tspan
         sodipodi:role="line"
         id="tspan3768-4-6"
         x="82.813072"
         y="143.5948"
         style="font-size:4.23333311px;line-height:1.25;stroke-width:0.26458332">Agent Domain</tspan></text>
    <path
       style="fill:none;stroke:#000000;stroke-width:0.26458332px;stroke-linecap:butt;stroke-linejoin:miter;stroke-opacity:1;marker-start:url(#Arrow1Lstart);marker-end:url(#Arrow1Lend)"
       d="m 60.788091,144.36377 24.379464,22.30059"
       id="path3802"
       inkscape:connector-curvature="0"
       sodipodi:nodetypes="cc" />
    <g
       id="g1783"
       transform="translate(-9.2958214,3.7741987)">
      <rect
         y="163.40181"
         x="79.929161"
         height="13.016685"
         width="28.774597"
         id="rect2996"
         style="fill:#7bbeff;fill-opacity:1;stroke:#000000;stroke-width:0.10228918;stroke-opacity:1" />
      <text
         id="text3766"
         y="168.61739"
         x="94.183823"
         style="font-style:normal;font-variant:normal;font-weight:normal;font-stretch:normal;font-size:3.17499995px;line-height:0%;font-family:Arial;-inkscape-font-specification:Arial;text-align:center;letter-spacing:0px;word-spacing:0px;text-anchor:middle;fill:#000000;fill-opacity:1;stroke:none;stroke-width:0.26458332"
         xml:space="preserve"><tspan
           style="font-size:3.52777767px;line-height:1.25;stroke-width:0.26458332"
           y="168.61739"
           x="94.183823"
           id="tspan3768"
           sodipodi:role="line">Environment</tspan><tspan
           id="tspan1773"
           style="font-size:3.52777767px;line-height:1.25;stroke-width:0.26458332"
           y="173.02711"
           x="94.183823"
           sodipodi:role="line">Agent</tspan></text>
    </g>
    <g
       id="g3839-2"
       transform="matrix(0.26458333,0,0,0.26458333,-48.125818,82.216241)">
      <rect
         ry="6.9041314"
         y="220.8882"
         x="305.57123"
         height="28.21434"
         width="106.07189"
         id="rect6203-9"
         style="fill:#c3ffc3;fill-opacity:1;stroke:#000000;stroke-width:1;stroke-linecap:round;stroke-linejoin:round;stroke-miterlimit:4;stroke-dasharray:none;stroke-dashoffset:0;stroke-opacity:1" />
      <text
         id="text3822-1"
         y="238.1985"
         x="358.92294"
         style="font-style:normal;font-variant:normal;font-weight:normal;font-stretch:normal;line-height:0%;font-family:Arial;-inkscape-font-specification:Arial;text-align:center;letter-spacing:0px;word-spacing:0px;text-anchor:middle;fill:#000000;fill-opacity:1;stroke:none"
         xml:space="preserve"><tspan
           style="font-size:13.33333397px;line-height:1.25"
           id="tspan3826-7"
           y="238.1985"
           x="358.92294"
           sodipodi:role="line">Agent 1</tspan></text>
    </g>
    <g
       id="g3839-2-0"
       transform="matrix(0.26458333,0,0,0.26458333,-48.125818,92.642086)">
      <rect
         ry="6.9041314"
         y="220.8882"
         x="305.57123"
         height="28.21434"
         width="106.07189"
         id="rect6203-9-9"
         style="fill:#c3ffc3;fill-opacity:1;stroke:#000000;stroke-width:1;stroke-linecap:round;stroke-linejoin:round;stroke-miterlimit:4;stroke-dasharray:none;stroke-dashoffset:0;stroke-opacity:1" />
      <text
         id="text3822-1-3"
         y="238.1985"
         x="358.92294"
         style="font-style:normal;font-variant:normal;font-weight:normal;font-stretch:normal;line-height:0%;font-family:Arial;-inkscape-font-specification:Arial;text-align:center;letter-spacing:0px;word-spacing:0px;text-anchor:middle;fill:#000000;fill-opacity:1;stroke:none"
         xml:space="preserve"><tspan
           style="font-size:13.33333397px;line-height:1.25"
           id="tspan3826-7-6"
           y="238.1985"
           x="358.92294"
           sodipodi:role="line">Agent 2</tspan></text>
    </g>
    <g
       id="g3839-2-06"
       transform="matrix(0.26458333,0,0,0.26458333,-48.125818,103.06793)">
      <rect
         ry="6.9041314"
         y="220.8882"
         x="305.57123"
         height="28.21434"
         width="106.07189"
         id="rect6203-9-2"
         style="fill:#c3ffc3;fill-opacity:1;stroke:#000000;stroke-width:1;stroke-linecap:round;stroke-linejoin:round;stroke-miterlimit:4;stroke-dasharray:none;stroke-dashoffset:0;stroke-opacity:1" />
      <text
         id="text3822-1-6"
         y="238.1985"
         x="358.92294"
         style="font-style:normal;font-variant:normal;font-weight:normal;font-stretch:normal;line-height:0%;font-family:Arial;-inkscape-font-specification:Arial;text-align:center;letter-spacing:0px;word-spacing:0px;text-anchor:middle;fill:#000000;fill-opacity:1;stroke:none"
         xml:space="preserve"><tspan
           style="font-size:13.33333397px;line-height:1.25"
           id="tspan3826-7-1"
           y="238.1985"
           x="358.92294"
           sodipodi:role="line">Agent 3</tspan></text>
    </g>
    <g
       id="g3839-2-8"
       transform="matrix(0.26458333,0,0,0.26458333,-48.692782,113.49378)">
      <rect
         ry="6.9041314"
         y="220.8882"
         x="305.57123"
         height="28.21434"
         width="106.07189"
         id="rect6203-9-7"
         style="fill:#c3ffc3;fill-opacity:1;stroke:#000000;stroke-width:1;stroke-linecap:round;stroke-linejoin:round;stroke-miterlimit:4;stroke-dasharray:none;stroke-dashoffset:0;stroke-opacity:1" />
      <text
         id="text3822-1-9"
         y="238.1985"
         x="358.92294"
         style="font-style:normal;font-variant:normal;font-weight:normal;font-stretch:normal;line-height:0%;font-family:Arial;-inkscape-font-specification:Arial;text-align:center;letter-spacing:0px;word-spacing:0px;text-anchor:middle;fill:#000000;fill-opacity:1;stroke:none"
         xml:space="preserve"><tspan
           style="font-size:13.33333397px;line-height:1.25"
           id="tspan3826-7-2"
           y="238.1985"
           x="358.92294"
           sodipodi:role="line">Agent n</tspan></text>
    </g>
    <path
       style="fill:none;stroke:#000000;stroke-width:0.26458332px;stroke-linecap:butt;stroke-linejoin:miter;stroke-opacity:1;marker-start:url(#Arrow1Lstart-02);marker-end:url(#Arrow1Lend-59)"
       d="M 60.788091,154.78961 74.77321,166.88485"
       id="path3802-2"
       inkscape:connector-curvature="0"
       sodipodi:nodetypes="cc" />
    <path
       style="fill:none;stroke:#000000;stroke-width:0.26458332px;stroke-linecap:butt;stroke-linejoin:miter;stroke-opacity:1;marker-start:url(#Arrow1Lstart-02-8);marker-end:url(#Arrow1Lend-59-7)"
       d="m 60.702973,164.93515 9.552391,6.20961"
       id="path3802-2-6"
       inkscape:connector-curvature="0"
       sodipodi:nodetypes="cc" />
    <path
       style="fill:none;stroke:#000000;stroke-width:0.26458332px;stroke-linecap:butt;stroke-linejoin:miter;stroke-opacity:1;marker-start:url(#Arrow1Lstart-02-8-1);marker-end:url(#Arrow1Lend-59-7-9)"
       d="m 60.702973,176.04772 h 9.638392"
       id="path3802-2-6-1"
       inkscape:connector-curvature="0"
       sodipodi:nodetypes="cc" />
    <path
       style="fill:#7bbeff;fill-opacity:1;stroke:#000000;stroke-width:0.14492221;stroke-miterlimit:4;stroke-dasharray:none;stroke-opacity:1"
       d="m 103.80936,170.59277 -3.41772,3.07578 3.41772,3.07576 -0.0142,-2.06489 h 18.58099 l -0.0145,2.06489 3.41772,-3.07576 -3.41772,-3.07578 0.0145,2.0649 h -18.58099 z"
       id="rect2996-5-5"
       inkscape:connector-curvature="0"
       sodipodi:nodetypes="ccccccccccc" />
    <text
       xml:space="preserve"
       style="font-style:normal;font-variant:normal;font-weight:normal;font-stretch:normal;font-size:3.17499995px;line-height:0%;font-family:Arial;-inkscape-font-specification:Arial;text-align:center;letter-spacing:0px;word-spacing:0px;text-anchor:middle;fill:#000000;fill-opacity:1;stroke:none;stroke-width:0.26458332"
       x="115.63174"
       y="185.74353"
       id="text3766-9-5-3"><tspan
         sodipodi:role="line"
         id="tspan3768-4-6-6"
         x="115.63174"
         y="185.74353"
         style="font-size:4.23333311px;line-height:1.25;stroke-width:0.26458332">Environment Domain</tspan></text>
  </g>
</svg>
